"id  товара";Название;Цена;"id группы";"название группы";"цена с механизмом";"цена без механизма"
2591;"Спальня Венеция";149990
2852;"Венеция Люкс";149990
1053;"Кровать двуспальная Верди слоновая кость";39238
1163;"Кровать двухспальная Милана слоновая кость";63150
1173;"Кровать двухспальная Милана черешня";57231
2335;"Кровать двуспальная Верди дуб";36992
2336;"Кровать односпальная Верди дуб";24051
2347;"Кровать двухспальная Венеция 2";36340
2650;"Кровать односпальная Верди слоновая кость";25603
1013;"Шкаф трехдверный Верди слоновая кость";46831
1023;"Шкаф четырехдверный Верди дуб";52713
1263;"Шкаф трехдверный Венеция 3";62870
2292;"Шкаф трехдверный Милана слоновая кость";74846
2295;"Шкаф трехдверный Милана черешня";67828
2322;"Шкаф трехдверный Верди дуб";44103
2323;"Шкаф четырехдверный Верди слоновая кость";55868
2324;"Шкаф двухдверный Верди дуб";30505
2325;"Шкаф двухдверный Верди слоновая кость";34141
2331;"Шкаф четырехдверный Венеция 4";72400
2696;"Шкаф четырёхдверный Милана слоновая кость";85320
2697;"Шкаф шестидверный Милана слоновая кость";144081
1273;"Тумба прикроватная Венеция";9883
2293;"Тумба туалетная Милана черешня (узкая)";29230
2294;"Тумба туалетная Милана слоновая кость (узкая)";30400
2296;"Тумба прикроватная Милана черешня";10516
2297;"Тумба прикроватная Милана слоновая кость";11686
2326;"Тумба прикроватная Верди дуб";5978
2327;"Тумба прикроватная Верди слоновая кость";6353
2334;"Тумба Венеция 3.4с";47011
2642;"Комод Верди слоновая кость";13733
2333;"Комод Верди дуб";12983
2358;"Тумба туалетная Милана слоновая кость (широкая)";30400
2359;"Тумба туалетная Милана черешня (широкая)";32170
2592;"Зеркало с фацетом Верди 2 дуб";4919
2511;"Зеркало с фацетом Верди 3";6471
2711;"Столик туалетный Верди";9618
2641;"Зеркало Милана";7980
2510;"Зеркало с фацетом Верди 2";5775
33070;"Гостиная Оскар";99990
33070;"Гостиная Оскар";99990
32978;"Спальня Оскар (массив дуба)";239990
33016;"Спальня Оскар (белая эмаль)";179900
33042;"Спальня Нинель";54900
32986;"Спальня Кармен (массив Ольхи)";99999
32982;"Спальня Лика (массив дуба)";78900
32990;"Спальня Валентина (массив Бука)";134990
32985;"Спальня Ромашка 1 (массив ольхи)";79900
32984;"Спальня Влада (массив Бука)";148900
32980;"Спальня Лика (беленый дуб)";92256
33064;"Гостиная Давиль";86169
33067;"Гостиная Полонез";210878
33069;"Гостиная Бурже (массив дуба)";90860
33066;"Кресло Давиль";10709
2283;"Шкаф с витриной Венеция 1";39458
2287;"Шкаф с витриной Венеция 2";53569
2289;"Шкаф с витриной Венеция 1 угл.";39451
2290;"Шкаф с витриной Венеция 3";56196
2303;"Шкаф с витриной Милана 8 черешня";57178
2304;"Шкаф с витриной Милана 8 слоновая кость";75399
2305;"Шкаф с витриной Милана 5 черешня";74645
2306;"Шкаф с витриной Милана 5 слоновая кость";100407
2350;"Шкаф с витриной Верди 1з слоновая кость";21325
2351;"Шкаф Верди 1 слоновая кость";15336
2352;"Шкаф Верди 1/1 слоновая кость";19026
2353;"Шкаф Верди 2/1 слоновая кость";26513
2354;"Шкаф с витриной Верди 2 з слоновая кость";33730
2355;"Шкаф Верди 2 слоновая кость";23892
2360;"Модульный шкаф-стенка Верди 3 з слоновая кость";47152
2361;"Шкаф комбинированный Верди 3/2з слоновая кость";29193
2362;"Шкаф комбинированный Верди 3/3з дуб";30681
2504;"Шкаф комбинированный Верди 3 з дуб";41543
2505;"Шкаф комбинированный Верди 2 з слоновая кость";33998
2506;"Шкаф комбинированный Верди 2 з дуб";30133
2507;"Шкаф комбинированный Верди 1 уз дуб";27046
2508;"Шкаф комбинированный Верди 1 уз слоновая кость";29879
2509;"Шкаф комбинированный Верди 1/1 уз слоновая кость";25287
2514;"Шкаф c витриной Милана 10";60168
2524;"Подставка декоративная Венеция 1";13167
2525;"Подставка декоративная Венеция 2";4847
2539;"Шкаф Верди 1/1 Дуб";17956
2540;"Шкаф с витриной Верди 2 з дуб";31806
2543;"Шкаф комбинированный Верди 1/1 уз дуб";22798
2634;"Шкаф с витриной Венеция 4";76941
2640;"Шкаф с витриной Верди 1з дуб";18880
2656;"Шкаф Верди 2/1 дуб";24961
2675;"Шкаф Верди 1 дуб";12823
2676;"Шкаф Верди 2 дуб";22554
2698;"Шкаф комбинированный Верди 3/3з слоновая кость";33998
2762;"Шкаф с витриной Амати";29695
33047;"Зеркало Нинель";3094
33046;"Тумба прикроватная Нинель";3771
33045;"Комод Нинель";10216
33044;"Шкаф Нинель";36176
33043;"Кровать Нинель";11186
33041;"Стол Верди 10А Унисон беленый дуб";24880
33039;"Стол Давиль (белая эмаль)";20185
33038;"Стол Давиль";19348
33037;"Стол Полонез (массив Бука)";45424
33036;"Стол гостинный Влада";45424
1113;"Тумба Верди ТВ1 слоновая кость";6941
1213;"Тумба Милана ТВ1 черешня";32233
1223;"Тумба Милана ТВ1 слоновая кость";35249
2272;"Тумба Венеция 2";22169
2273;"Тумба Венеция 3.4с";32402
2274;"Тумба Венеция 3";37321
2275;"Тумба Венеция 2с";28467
2277;"Тумба Венеция ТВ 1";14302
2278;"Тумба Венеция ТВ 2";21627
2307;"Тумба Милана 7 слоновая кость";26704
2308;"Тумба Милана 7 черешня";20358
2309;"Тумба Милана 2 черешня";64781
2310;"Тумба Милана 2 слоновая кость";74864
2311;"Тумба Милана 6 черешня";15834
2312;"Тумба Милана 6 слоновая кость";22871
2313;"Тумба Милана 4 черешня";96260
2314;"Тумба Милана 4 слоновая кость";108450
2315;"Тумба Милана 3 черешня";72195
2320;"Тумба Милана 3 слоновая кость";89286
2363;"Тумба Верди 2 слоновая кость";15282
2364;"Тумба Верди 3 слоновая кость";23463
2365;"Тумба Верди ТВ2 дуб";12181
2537;"Тумба Верди ТВ2 слоновая кость";13304
2541;"Тумба Венеция ТВ3";24077
2542;"Тумба Верди ТВ1 дуб";6110
2544;"Тумба Венеция 3.4";32402
2600;"Тумба Верди 1у беленый дуб";14159
2635;"Тумба Верди 1у дуб";12127
2636;"Тумба Верди 1/1у дуб";12289
2638;"Тумба Верди 3 дуб";18117
2677;"Тумба Верди 1/1у беленый дуб";12289
2763;"Комод Амати";36150
2291;"Стол обеденный Венеция 2Р";29837
2366;"Стол обеденный Верди 1Р дуб";16522
2367;"Стол обеденный Верди 2Р черешня";28223
2368;"Стол обеденный Верди 3Р черешня";29409
2545;"Стол обеденный Верди 1 слоновая кость";11272
2546;"Стол обеденный Верди 2 черешня";25184
2547;"Стол обеденный Верди 3Р слоновая кость";33676
2548;"Стол обеденный Верди 2 беленый дуб";27216
2549;"Стол обеденный Верди 3 дуб";29890
2631;"Стол обеденный Верди 2Р слоновая кость";29774
2780;"Стол Милана 10/1";20965
33040;"Стол обеденный Верди 14 3100S";0
2782;"Стол Верди 11";21114
2847;"Стол Верди 11 беленый дуб";22249
2849;"Стол обеденный Венеция 11";18729
2851;"Стол Милана 12";12
2854;"Стол Милана 10/1 черешня";20965
2692;"Модульный шкаф-стенка Верди 1 дуб";60199
2693;"Модульный шкаф-стенка Верди 2 дуб";75385
1033;"Модульный шкаф-стенка Верди 1 слоновая кость";70838
1073;"Модульный шкаф-стенка Верди 2 слоновая кость";80730
2337;"Модульный шкаф-стенка Верди 2-01 слоновая кость";80730
2338;"Модульный шкаф-стенка Верди 3 слоновая кость";35228
2339;"Модульный шкаф-стенка Верди 4 слоновая кость";70519
2340;"Модульный шкаф-стенка Верди 5 слоновая кость";74154
2341;"Модульный шкаф-стенка Верди 5-01 слоновая кость";74154
2733;"Стенка Верди 1";53194
2734;"Стенка Верди 2";69556
2735;"Стенка Верди 3";78699
1093;"Стол письменный Верди 7 слоновая кость";37848
2342;"Стол письменный Верди 7 дуб";33142
2343;"Стол письменный Верди 8 дуб";38542
2344;"Стол письменный Верди 8 слоновая кость";48274
2345;"Стол письменный Верди 9 дуб";27046
2346;"Стол письменный Верди 9 слоновая кость";29880
33086;"Тумба прикроватная Оскар (массив дуба)";18933
33084;"Шкаф 4х дверный Оскар (массив дуба)";107282
32999;"Библиотека Оскар";105900
2852;"Венеция Люкс";149990
33088;"Комод Оскар (белая эмаль) ММ-210-07";41375
33030;"Шкаф с витриной Давиль (белая эмаль)";25227
33087;"Столик туалетный Оскар (массив дуба)";43570
33042;"Спальня Нинель";54900
33031;"Шкаф для одежды Амати";49507
33085;"Комод Оскар (массив дуба)";37064
32941;"Спальня Валентина";168073
32940;"Кровать Валентина 1";28559
32943;"Шкаф с витриной Амати";27966
32944;"Комод Амати";29048
32945;"Кровать Кармен";23284
32946;"Кровать Влада (массив Бука)";32616
32947;"Кровать Влада с пониженной спинкой (массив Бука)";31146
32948;"Кровать Лика (массив Дуба)";20876
32949;"Кровать Ромашка (без спинки)";21406
32950;"Кровать Ромашка (массив ольхи)";22649
32952;"Кровать Лика (беленый дуб)";23125
32953;"Кровать Амати";26035
32954;"Кровать Валентина (массив Бука)";30366
32955;"Кровать Оскар";43957
32956;"Столик туалетный Венеция";17925
32958;"Шкаф Валентина (массив Бука)";59943
32959;"Зеркало Венеция 2";7759
32960;"Зеркало Венеция 3";13106
32961;"Шкаф Кармен (массив Ольхи)";63058
32962;"Шкаф Ромашка (массив ольхи)";39765
32963;"Столик туалетный Амати";20301
32964;"Зеркало Амати";6421
32965;"Зеркало Валентина (массив Бука)";4579
32966;"Зеркало Кармен (массив Ольхи)";4172
32967;"Столик туалетный Ромашка";10099
32968;"Шкаф трехдверный Ромашка (массив ольхи)";39798
32969;"Зеркало Ромашка (массив ольхи)";2704
32970;"Шкаф Бурже 53-3010 (массив дуба)";30798
32971;"Зеркало Влада (массив Бука)";4820
32972;"Зеркало Лика (беленый дуб)";4354
32973;"Зеркало Лика (массив дуба)";4154
32974;"Шкаф двухдверный Влада (массив Бука)";66463
32975;"Шкаф трехдверный Влада (массив Бука)";58480
32976;"Шкаф с витриной Влада";56957
32977;"Шкаф Полонез с витриной (массив Бука)";28602
32978;"Спальня Оскар (массив дуба)";239990
32979;"Шкаф 4х дверный Лика (массив Дуба)";32924
32980;"Спальня Лика (беленый дуб)";92256
32981;"Шкаф трехдверный Лика (беленый дуб)";26600
32982;"Спальня Лика (массив дуба)";78900
32983;"Шкаф 3-х дверный с витриной Давиль";51105
32984;"Спальня Влада (массив Бука)";148900
32985;"Спальня Ромашка 1 (массив ольхи)";79900
32986;"Спальня Кармен (массив Ольхи)";99999
32987;"Шкаф 3-х дверный с витриной (белая эмаль) Давиль";52644
32989;"Шкаф с витриной Давиль";19946
32990;"Спальня Валентина (массив Бука)";134990
32991;"Шкаф с витриной Давиль  (белый)";26849
32992;"Столик туалетный Влада (массив Бука)";11731
32993;"Комод Валентина (массив Бука)";26941
32995;"Тумба прикроватная Валентина (массив Бука)";14087
32997;"Комод Кармен (массив Ольхи)";17635
32998;"Стол письменный Оскар";46611
32999;"Библиотека Оскар";105900
33000;"Комод Ромашка (массив ольхи)";11104
33001;"Шкаф-стенка Верди 3 беленый дуб";77777
33002;"Тумба прикроватная Ромашка (массив ольхи)";3647
33003;"Комод Бурже 53-1640 (массив дуба)";38392
33004;"Тумба Влада";42495
33005;"Тумба под ТВ Влада";22822
33006;"Комод Влада (массив Бука)";29632
33007;"Тумба прикроватная Влада (массив Бука)";15652
33008;"Тумба Полонез (массив Бука)";34025
33009;"Комод Лика (беленый дуб)";19677
33010;"Тумба прикроватная Лика (беленый дуб)";9250
33011;"Комод Лика (массив дуба)";18751
33012;"Тумба прикроватная Лика (массив Дуба)";8812
33013;"Тумба Давиль";13749
33014;"Тумба Давиль 2";28145
33015;"Тумба Давиль (белая эмаль)";28545
33016;"Спальня Оскар (белая эмаль)";179900
33017;"Кровать Оскар (белая эмаль)";39291
33069;"Гостиная Бурже (массив дуба)";90860
33067;"Гостиная Полонез";210878
2332;"Комод Венеция";24656
2709;"Столик туалетный Милана слоновая кость";13470
33071;"Влада Гостиная";227995
33071;"Влада Гостиная";227995
33064;"Гостиная Давиль";86169
32996;"Библиотека Оскар (массив дуба)";157519
33028;"Шкаф с витриной Оскар ММ-210 01/01";37063
33035;"Стол Бурже обеденный 53-2710 (массив дуба)";24988
33048;"Тумба прикроватная Амати";15552
33049;"Тумба прикроватная Кармен (массив Ольхи)";9847
33050;"Шкаф Оскар (белая эмаль)";70497
33051;"Тумба прикроватная Оскар (белая эмаль)";15953
33052;"Комод Оскар (белая эмаль)";31619
33053;"Зеркало Оскар (белая эмаль)";6521
33054;"Зеркало Полонез (массив Бука)";4557
33055;"Зеркало гостинное Влада";13555
33056;"Зеркало Давиль";4326
33057;"Стул Влада";9290
33058;"Стул Полонез (массив Бука)";8804
33059;"Стул Давиль";8175
33060;"Стул Давиль (белая эмаль)";8427
2640;"Шкаф с витриной Верди 1з дуб";18880
2353;"Шкаф Верди 2/1 слоновая кость";26513
33061;"Тумба Оскар ММ-210-05";28529
33089;"Гостиная Влада (массив бука)";93990
33089;"Гостиная Влада (массив бука)";93990
33093;"Гостиная Полонез 1";67990
33093;"Гостиная Полонез 1";67990
33094;"Гостиная Давиль 1";49990
33094;"Гостиная Давиль 1";49990
