﻿2015-09-17 10:13:39 - Нет соединения с базой данных!
2015-09-17 10:13:40 - Нет соединения с базой данных!
2015-09-17 10:14:04 - Не могу найти необходимый файл!
2015-09-17 10:14:48 - Успешно обновлено.
2015-09-17 10:20:24 - Успешно обновлено.
2015-09-17 11:01:40 - Нет соединения с базой данных!
2015-09-17 11:03:48 - Нет соединения с базой данных!
2015-09-17 11:26:53 - Успешно обновлено.
2015-09-17 11:34:38 - Нет соединения с базой данных!
2015-09-17 11:51:55 - Успешно обновлено.
2015-09-17 11:53:52 - Успешно обновлено.
2015-09-17 11:53:54 - Успешно обновлено.
2015-09-17 11:53:56 - Успешно обновлено.
2015-09-17 11:53:59 - Успешно обновлено.
2015-09-17 11:54:00 - Успешно обновлено.
2015-09-17 11:55:10 - Успешно обновлено.
2015-09-17 12:04:25 - Успешно обновлено.
2015-09-17 13:00:01 - Успешно обновлено.
2015-09-17 14:00:02 - Успешно обновлено.
2015-09-17 15:00:02 - Успешно обновлено.
2015-09-17 16:00:01 - Успешно обновлено.
2015-09-17 17:00:01 - Успешно обновлено.
2015-09-17 18:00:01 - Успешно обновлено.
2015-09-17 19:00:02 - Успешно обновлено.
2015-09-17 20:00:01 - Успешно обновлено.
2015-09-17 21:00:01 - Успешно обновлено.
2015-09-17 22:00:01 - Успешно обновлено.
2015-09-17 23:00:01 - Успешно обновлено.
2015-09-18 00:00:01 - Не могу найти необходимый файл!
2015-09-18 01:00:02 - Не могу найти необходимый файл!
2015-09-18 02:00:01 - Не могу найти необходимый файл!
2015-09-18 03:00:01 - Не могу найти необходимый файл!
2015-09-18 04:00:01 - Не могу найти необходимый файл!
2015-09-18 05:00:01 - Не могу найти необходимый файл!
2015-09-18 06:00:01 - Не могу найти необходимый файл!
2015-09-18 07:00:01 - Не могу найти необходимый файл!
2015-09-18 08:00:01 - Не могу найти необходимый файл!
2015-09-18 09:00:01 - Не могу найти необходимый файл!
2015-09-18 10:00:01 - Не могу найти необходимый файл!
2015-09-18 10:11:59 - Не могу найти необходимый файл!
2015-09-18 11:00:02 - Успешно обновлено.
2015-09-18 12:00:02 - Успешно обновлено.
2015-09-18 13:00:01 - Успешно обновлено.
2015-09-18 14:00:04 - Успешно обновлено.
2015-09-18 15:00:01 - Успешно обновлено.
2015-09-18 16:00:02 - Успешно обновлено.
2015-09-18 17:00:01 - Успешно обновлено.
2015-09-18 18:00:02 - Успешно обновлено.
2015-09-18 19:00:01 - Успешно обновлено.
2015-09-18 20:00:01 - Успешно обновлено.
2015-09-18 21:00:02 - Успешно обновлено.
2015-09-18 22:00:02 - Успешно обновлено.
2015-09-18 23:00:02 - Успешно обновлено.
2015-09-19 00:00:01 - Не могу найти необходимый файл!
2015-09-19 01:00:01 - Не могу найти необходимый файл!
2015-09-19 02:00:01 - Не могу найти необходимый файл!
2015-09-19 03:00:01 - Не могу найти необходимый файл!
2015-09-19 04:00:01 - Не могу найти необходимый файл!
2015-09-19 05:00:01 - Не могу найти необходимый файл!
2015-09-19 06:00:01 - Не могу найти необходимый файл!
2015-09-19 07:00:01 - Не могу найти необходимый файл!
2015-09-19 08:00:01 - Не могу найти необходимый файл!
2015-09-19 09:00:01 - Не могу найти необходимый файл!
2015-09-19 10:00:01 - Не могу найти необходимый файл!
2015-09-19 11:00:01 - Не могу найти необходимый файл!
2015-09-19 12:00:01 - Не могу найти необходимый файл!
2015-09-19 13:00:01 - Не могу найти необходимый файл!
2015-09-19 14:00:01 - Не могу найти необходимый файл!
2015-09-19 15:00:01 - Не могу найти необходимый файл!
2015-09-19 16:00:01 - Не могу найти необходимый файл!
2015-09-19 17:00:01 - Не могу найти необходимый файл!
2015-09-19 18:00:01 - Не могу найти необходимый файл!
2015-09-19 19:00:01 - Не могу найти необходимый файл!
2015-09-19 20:00:01 - Не могу найти необходимый файл!
2015-09-19 21:00:01 - Не могу найти необходимый файл!
2015-09-19 22:00:02 - Не могу найти необходимый файл!
2015-09-19 23:00:01 - Не могу найти необходимый файл!
2015-09-20 00:00:01 - Не могу найти необходимый файл!
2015-09-20 01:00:01 - Не могу найти необходимый файл!
2015-09-20 02:00:01 - Не могу найти необходимый файл!
2015-09-20 03:00:02 - Не могу найти необходимый файл!
2015-09-20 04:00:01 - Не могу найти необходимый файл!
2015-09-20 05:00:01 - Не могу найти необходимый файл!
2015-09-20 06:00:01 - Не могу найти необходимый файл!
2015-09-20 07:00:01 - Не могу найти необходимый файл!
2015-09-20 08:00:01 - Не могу найти необходимый файл!
2015-09-20 09:00:01 - Не могу найти необходимый файл!
2015-09-20 10:00:01 - Не могу найти необходимый файл!
2015-09-20 11:00:01 - Не могу найти необходимый файл!
2015-09-20 12:00:01 - Не могу найти необходимый файл!
2015-09-20 13:00:01 - Не могу найти необходимый файл!
2015-09-20 14:00:02 - Не могу найти необходимый файл!
2015-09-20 15:00:01 - Не могу найти необходимый файл!
2015-09-20 16:00:01 - Не могу найти необходимый файл!
2015-09-20 17:00:01 - Не могу найти необходимый файл!
2015-09-20 18:00:01 - Не могу найти необходимый файл!
2015-09-20 19:00:01 - Не могу найти необходимый файл!
2015-09-20 20:00:01 - Не могу найти необходимый файл!
2015-09-20 21:00:01 - Не могу найти необходимый файл!
2015-09-20 22:00:01 - Не могу найти необходимый файл!
2015-09-20 23:00:01 - Не могу найти необходимый файл!
2015-09-21 00:00:01 - Не могу найти необходимый файл!
2015-09-21 01:00:01 - Не могу найти необходимый файл!
2015-09-21 02:00:02 - Не могу найти необходимый файл!
2015-09-21 03:00:01 - Не могу найти необходимый файл!
2015-09-21 04:00:01 - Не могу найти необходимый файл!
2015-09-21 05:00:01 - Не могу найти необходимый файл!
2015-09-21 06:00:01 - Не могу найти необходимый файл!
2015-09-21 07:00:01 - Не могу найти необходимый файл!
2015-09-21 08:00:01 - Не могу найти необходимый файл!
2015-09-21 09:00:01 - Не могу найти необходимый файл!
2015-09-21 10:00:02 - Успешно обновлено.
2015-09-21 11:00:01 - Успешно обновлено.
2015-09-21 12:00:02 - Успешно обновлено.
2015-09-21 13:00:01 - Успешно обновлено.
2015-09-21 14:00:02 - Успешно обновлено.
2015-09-21 15:00:02 - Успешно обновлено.
2015-09-21 16:00:02 - Успешно обновлено.
2015-09-21 17:00:02 - Успешно обновлено.
2015-09-21 18:00:01 - Успешно обновлено.
2015-09-21 19:00:01 - Успешно обновлено.
2015-09-21 20:00:01 - Успешно обновлено.
2015-09-21 21:00:01 - Успешно обновлено.
2015-09-21 22:00:02 - Успешно обновлено.
2015-09-21 23:00:02 - Успешно обновлено.
2015-09-22 00:00:02 - Не могу найти необходимый файл!
2015-09-22 01:00:01 - Не могу найти необходимый файл!
2015-09-22 02:00:01 - Не могу найти необходимый файл!
2015-09-22 03:00:01 - Не могу найти необходимый файл!
2015-09-22 04:00:01 - Не могу найти необходимый файл!
2015-09-22 05:00:01 - Не могу найти необходимый файл!
2015-09-22 06:00:01 - Не могу найти необходимый файл!
2015-09-22 07:00:01 - Не могу найти необходимый файл!
2015-09-22 08:00:01 - Не могу найти необходимый файл!
2015-09-22 09:00:01 - Не могу найти необходимый файл!
2015-09-22 10:00:01 - Не могу найти необходимый файл!
2015-09-22 11:00:02 - Успешно обновлено.
2015-09-22 12:00:02 - Успешно обновлено.
2015-09-22 13:00:01 - Успешно обновлено.
2015-09-22 14:00:02 - Успешно обновлено.
2015-09-22 15:00:01 - Успешно обновлено.
2015-09-22 16:00:02 - Успешно обновлено.
2015-09-22 17:00:01 - Успешно обновлено.
2015-09-22 18:00:02 - Успешно обновлено.
2015-09-22 19:00:02 - Успешно обновлено.
2015-09-22 20:00:02 - Успешно обновлено.
2015-09-22 21:00:02 - Успешно обновлено.
2015-09-22 22:00:01 - Успешно обновлено.
2015-09-22 23:00:02 - Успешно обновлено.
2015-09-23 00:00:02 - Не могу найти необходимый файл!
2015-09-23 01:00:01 - Не могу найти необходимый файл!
2015-09-23 02:00:01 - Не могу найти необходимый файл!
2015-09-23 03:00:01 - Не могу найти необходимый файл!
2015-09-23 04:00:01 - Не могу найти необходимый файл!
2015-09-23 05:00:01 - Не могу найти необходимый файл!
2015-09-23 06:00:01 - Не могу найти необходимый файл!
2015-09-23 07:00:01 - Не могу найти необходимый файл!
2015-09-23 08:00:01 - Не могу найти необходимый файл!
2015-09-23 09:00:01 - Не могу найти необходимый файл!
2015-09-23 10:00:01 - Не могу найти необходимый файл!
2015-09-23 11:00:01 - Успешно обновлено.
2015-09-23 12:00:02 - Успешно обновлено.
2015-09-23 13:00:01 - Успешно обновлено.
2015-09-23 14:00:01 - Успешно обновлено.
2015-09-23 15:00:01 - Успешно обновлено.
2015-09-23 16:00:01 - Успешно обновлено.
2015-09-23 17:00:02 - Успешно обновлено.
2015-09-23 18:00:02 - Успешно обновлено.
2015-09-23 19:00:02 - Успешно обновлено.
2015-09-23 20:00:02 - Успешно обновлено.
2015-09-23 21:00:01 - Успешно обновлено.
2015-09-23 22:00:02 - Успешно обновлено.
2015-09-23 23:00:01 - Успешно обновлено.
2015-09-24 00:00:01 - Не могу найти необходимый файл!
2015-09-24 01:00:01 - Не могу найти необходимый файл!
2015-09-24 02:00:01 - Не могу найти необходимый файл!
2015-09-24 03:00:01 - Не могу найти необходимый файл!
2015-09-24 04:00:01 - Не могу найти необходимый файл!
2015-09-24 05:00:01 - Не могу найти необходимый файл!
2015-09-24 06:00:01 - Не могу найти необходимый файл!
2015-09-24 07:00:01 - Не могу найти необходимый файл!
2015-09-24 08:00:01 - Не могу найти необходимый файл!
2015-09-24 09:00:01 - Не могу найти необходимый файл!
2015-09-24 10:00:02 - Успешно обновлено.
2015-09-24 11:00:01 - Успешно обновлено.
2015-09-24 12:00:02 - Успешно обновлено.
2015-09-24 13:00:01 - Успешно обновлено.
2015-09-24 14:00:02 - Успешно обновлено.
2015-09-24 15:00:01 - Успешно обновлено.
